{
    "port": "3001",
    "uri": "localhost",

    "dbHost": "localhost",
    "dbName": "TRANSPORATION",
    "dbLimitConnection": "4",
    "dbUserName": "root",
    "dbUserPassword": "Gv4atqH2P",

    "lists": [{
        "id": 1,
        "name": "Заказы"
      }, {
        "id": 2,
        "name": "Добавить заказ"
      }, {
        "id": 3,
        "name": "Добавить водителя"
      }, {
        "id": 4,
        "name": "Расчитать нагрузку"
      }, {
        "id": 5,
        "name": "Статистика"
      }, {
        "id": 6,
        "name": "Схема рц"
      }]
}
